module salsa.debian.org/mdosch/goxtxt

go 1.12

require (
	github.com/go-playground/validator/v10 v10.3.0 // indirect
	github.com/gobwas/httphead v0.0.0-20200921212729-da3d93bc3c58 // indirect
	github.com/gobwas/pool v0.2.1 // indirect
	github.com/gobwas/ws v1.0.4 // indirect
	github.com/golang/protobuf v1.4.2 // indirect
	github.com/google/go-cmp v0.5.2 // indirect
	github.com/google/uuid v1.1.5 // indirect
	github.com/gorilla/websocket v1.4.2 // indirect
	github.com/json-iterator/go v1.1.10 // indirect
	github.com/klauspost/compress v1.11.7 // indirect
	github.com/kr/text v0.2.0 // indirect
	github.com/modern-go/concurrent v0.0.0-20180306012644-bacd9c7ef1dd // indirect
	github.com/modern-go/reflect2 v1.0.1 // indirect
	github.com/niemeyer/pretty v0.0.0-20200227124842-a10e7caefd8e // indirect
	github.com/stretchr/testify v1.6.1 // indirect
	github.com/ugorji/go v1.1.8 // indirect
	golang.org/x/sys v0.0.0-20200923182605-d9f96fdee20d // indirect
	golang.org/x/xerrors v0.0.0-20200804184101-5ec99f83aff1 // indirect
	google.golang.org/protobuf v1.25.0 // indirect
	gopkg.in/check.v1 v1.0.0-20200902074654-038fdea0a05b // indirect
	gopkg.in/yaml.v2 v2.3.0 // indirect
	gopkg.in/yaml.v3 v3.0.0-20200615113413-eeeca48fe776 // indirect
	gosrc.io/xmpp v0.5.1
	nhooyr.io/websocket v1.8.6 // indirect
)
